{
  "cards" : [
    {
      "key": 0,
      "hp": 0,
      "energy": 0,
      "defence": 0,
      "attack": 0,
      "price": 0,
      "imgUrl": "",
      "name": "",
      "family": "",
      "description": " "
    }, {
      "key": 2,
      "hp": 8,
      "energy": 8,
      "defence": 537,
      "attack": 17,
      "price": 150,
      "imgUrl": "https://upload.wikimedia.org/wikipedia/en/3/35/Supermanflying.png",
      "name": "SuperMan",
      "family": "DC",
      "description": "Superman Vole et a une cape"
    },{
      "key": 3,
      "hp": 6,
      "energy": 52,
      "defence": 520,
      "attack": 25,
      "price": 150,
      "imgUrl": "https://www.dccomics.com/sites/default/files/Char_GetToKnow_Batman80_5ca54cb83a27a6.53173051.png",
      "name": "Batman",
      "family": "DC Comics",
      "description": "Batman a une Batmobile"
    }, {
      "key": 4,
      "hp": 80,
      "energy": 56,
      "defence": 78,
      "attack": 56,
      "price": 200,
      "imgUrl": "https://media.melty.fr/article-3949524-thumb-f10/media.jpg",
      "name": "Arrow",
      "family": "DC Comics",
      "description": "Arrow a un arc et des flèches"
    },
    {
      "key": 5,
      "hp": 15,
      "energy": 10,
      "defence": 400,
      "attack": 25,
      "price": 100,
      "image": "https://i.ytimg.com/sh/4nnUH67NowGGqDxvOM_VuQ/market.jpg",
      "name": "Supergirl",
      "family": "DC",
      "description": "Kara est la cousine de SuperMan"
    }, {
      "key": 6,
      "hp": 8,
      "energy": 8,
      "defence": 537,
      "attack": 17,
      "price": 150,
      "image": "https://images-na.ssl-images-amazon.com/images/I/612xu%2BUStNL._SY879_.jpg",
      "name": "Groot",
      "family": "Marvel",
      "description": "I AM Groot"
    },{
      "key": 7,
      "hp": 6,
      "energy": 52,
      "defence": 520,
      "attack": 25,
      "price": 150,
      "image": "https://www.sideshow.com/storage/product-images/904599/iron-man-mark-lxxxv__silo.png",
      "name": "IronMan",
      "family": "Marvel",
      "description": "IronMan est le chef des Avengers"
    }, {
      "key": 8,
      "hp": 80,
      "energy": 56,
      "defence": 78,
      "attack": 56,
      "price": 200,
      "image": "http://fr.web.img4.acsta.net/r_640_360/newsv7/19/07/05/10/38/4410013.jpg",
      "name": "SpiderMan",
      "family": "Marvel",
      "description": "Spider Man tisse des toiles"
    },
    {
      "key": 9,
      "hp": 10,
      "energy": 10,
      "defence": 500,
      "attack": 20,
      "price": 100,
      "image": "http://www.leparisien.fr/resizer/Lct73auYDC6VuQSwndz1SpKu04c=/932x582/arc-anglerfish-eu-central-1-prod-leparisien.s3.amazonaws.com/public/M4SKSQGCEDPWM3XFOSKYE4ANJM.jpg",
      "name": "Black Panther",
      "family": "Marvel",
      "description": "Black panther déteste Royal Canin"
    }, {
      "key": 10,
      "hp": 8,
      "energy": 8,
      "defence": 537,
      "attack": 17,
      "price": 150,
      "image": "https://tel.img.pmdstatic.net/fit/http.3A.2F.2Fprd2-bone-image.2Es3-website-eu-west-1.2Eamazonaws.2Ecom.2FTEL.2Enews.2F2018.2F01.2F11.2F8668e77b-c65a-473c-8724-9722fb910406.2Ejpeg/1150x495/crop-from/top/quality/80/wolverine-hugh-jackman-fait-ses-adieux-au-mutant-de-la-saga-x-men-photo.jpg",
      "name": "Wolverine",
      "family": "X-men",
      "description": "Wolverine a des griffes"
    },{
      "key": 11,
      "hp": 6,
      "energy": 52,
      "defence": 520,
      "attack": 25,
      "price": 150,
      "image": "http://fr.web.img2.acsta.net/newsv7/19/09/03/17/11/1458188.jpg",
      "name": "Flash",
      "family": "DC Comics",
      "description": "Flash court très vite"
    }, {
      "key": 12,
      "hp": 80,
      "energy": 56,
      "defence": 78,
      "attack": 56,
      "price": 200,
      "image": "https://is5-ssl.mzstatic.com/image/thumb/Video71/v4/56/05/3a/56053ad9-286d-f10e-60f6-62629f495ffd/pr_source.jpg/268x0w.jpg",
      "name": "Green Lantern",
      "family": "DC Comics",
      "description": "La lanterne verte a une bague"
    }
  ]
}
